HuBMAP Datasets — datasets • HuBMAPR
…
    Details

    Additional details are provided on the HuBMAP consortium
webpage, https://software.docs.hubmapconsortium.org/apis

    Examples

datasets(size = 100, from = 200)
#> # A tibble: 100 × 9
#>    uuid             hubmap_id data_types dataset_type donor.hubmap_id group_name
#>    <chr>            <chr>     <chr>      <chr>        <chr>           <chr>     
#>  1 dbc5beb00b135b9… HBM892.D… image_pyr… Auto-fluore… HBM889.KSKV.978 Vanderbil…
#>  2 a9503f75064c50b… HBM999.D… image_pyr… Auto-fluore… HBM285.XQXL.628 Vanderbil…
#>  3 1e6fd664bc0f5f9… HBM673.F… image_pyr… Auto-fluore… HBM938.LVRS.434 Vanderbil…
#>  4 82cbdc9a6eef422… HBM332.F… image_pyr… Auto-fluore… HBM687.KPKM.763 Vanderbil…
#>  5 ebec43b391090f6… HBM364.M… image_pyr… Auto-fluore… HBM322.KQBK.747 Vanderbil…
#>  6 6344050b82c0b5d… HBM575.L… image_pyr… Auto-fluore… HBM395.HCTC.292 Vanderbil…
#>  7 b444fe229aa2173… HBM238.J… image_pyr… Auto-fluore… HBM398.QCMJ.558 Vanderbil…
#>  8 647d7cf8d574dd9… HBM396.Z… image_pyr… Auto-fluore… HBM253.KBSM.226 Vanderbil…
#>  9 102da8a31557148… HBM277.N… AF         Auto-fluore… HBM357.GMBX.758 Vanderbil…
#> 10 5863df933c2d6e9… HBM466.H… image_pyr… Auto-fluore… HBM259.SNDB.787 Vanderbil…
#> # ℹ 90 more rows
#> # ℹ 3 more variables: last_modified_timestamp <date>, status <chr>, organ <chr>
…
