HuBMAP Donors — donors • HuBMAPR
…
Additional details are provided on the HuBMAP consortium
webpage, https://software.docs.hubmapconsortium.org/apis

Additional details are provided on the HuBMAP consortium
webpage, https://software.docs.hubmapconsortium.org/apis

Additional details are provided on the HuBMAP consortium
webpage, https://software.docs.hubmapconsortium.org/apis

    Examples

donors()
#> # A tibble: 304 × 8
#>    uuid                 hubmap_id group_name Sex     Age `Body Mass Index` Race 
#>    <chr>                <chr>     <chr>      <chr> <dbl>             <dbl> <chr>
#>  1 7dee9126a98c1e0d244… HBM994.T… Universit… Male   20                23.8 White
#>  2 9a365990ee2f87e6ae6… HBM945.N… Universit… Fema…  42                37.9 Blac…
#>  3 dc32c49414c71ac8f75… HBM697.M… Vanderbil… Male   70                24.8 White
#>  4 dab3ca946f147660e64… HBM453.W… Stanford … Fema…  24.5              20.5 Asian
#>  5 12327363809f68135c9… HBM285.X… Vanderbil… Male   66                23.7 White
#>  6 a9c2ea2bd3106f142ed… HBM994.N… Universit… Fema…  25                30.2 White
#>  7 6a152306bc81179d7a1… HBM954.J… Stanford … Fema…  21.2              34   Blac…
#>  8 e727257a20a08346765… HBM852.D… Universit… Male   25                20.9 Othe…
#>  9 25fd10f300c96818d34… HBM845.M… General E… Male   38                21.8 Unkn…
#> 10 1e0b527a43693605045… HBM735.Q… Universit… Male   67                32.1 White
#> # ℹ 294 more rows
#> # ℹ 1 more variable: last_modified_timestamp <chr>
…
