HuBMAP Samples — publications • HuBMAPR
…
uuid <- "3c7273660cdf9ab91a7901533b2cd9a5"
publication_data(uuid)
#> # A tibble: 1 × 7
#>   uuid     hubmap_id data_types dataset_type status last_modified_timest…¹ organ
#>   <chr>    <chr>     <chr>      <chr>        <chr>  <chr>                  <chr>
#> 1 00d9d4b… HBM342.M… SNARE-RNA… RNAseq       Publi… 2022-05-11             Kidn…
#> # ℹ abbreviated name: ¹​last_modified_timestamp

uuid <- "3c7273660cdf9ab91a7901533b2cd9a5"
publication_authors(uuid)
#> # A tibble: 50 × 3
#>    name                  affiliation                                    orcid_id
#>    <chr>                 <chr>                                          <chr>   
#>  1 Blue B. Lake          Department of Bioengineering, University of C… 0000-00…
#>  2 Rajasree Menon        Department of Computational Medicine and Bioi… 0000-00…
#>  3 Seth Winfree          Department of Pathology and Microbiology, Uni… 0000-00…
#>  4 Qiwen Hu              Department of Biomedical Informatics, Harvard… 0000-00…
#>  5 Ricardo Melo Ferreira Department of Medicine, Indiana University Sc… 0000-00…
#>  6 Kian Kalhor           Department of Bioengineering, University of C… 0000-00…
#>  7 Daria Barwinska       Department of Medicine, Indiana University Sc… 0000-00…
#>  8 Edgar A. Otto         Department of Internal Medicine, Division of … 0000-00…
#>  9 Michael Ferkowicz     Department of Medicine, Indiana University Sc… 0000-00…
#> 10 Dinh Diep             Department of Bioengineering, University of C… 0000-00…
#> # ℹ 40 more rows
…
