HuBMAP Samples — samples • HuBMAPR
…
Additional details are provided on the HuBMAP consortium
webpage, https://software.docs.hubmapconsortium.org/apis

Additional details are provided on the HuBMAP consortium
webpage, https://software.docs.hubmapconsortium.org/apis

Additional details are provided on the HuBMAP consortium
webpage, https://software.docs.hubmapconsortium.org/apis

    Examples

samples()
#> # A tibble: 2,191 × 7
#>    uuid              hubmap_id donor_hubmap_id group_name last_modified_timest…¹
#>    <chr>             <chr>     <chr>           <chr>      <chr>                 
#>  1 5abbecf8d13b9df7… HBM562.L… HBM256.BRQS.425 Universit… 2024-10-17            
#>  2 c18dbe465fe2dfdd… HBM735.Q… HBM894.PKMC.242 Universit… 2024-10-17            
#>  3 c15e6342d6905d6d… HBM548.T… HBM579.CTRK.363 Universit… 2024-10-17            
#>  4 f7b37eff8a36eb38… HBM997.B… HBM765.TRHD.452 Stanford … 2024-09-23            
#>  5 44af15225914d2b3… HBM866.F… HBM963.LXWM.598 TC - Univ… 2024-07-30            
#>  6 569fbb861c163632… HBM955.D… HBM883.LHNK.872 TC - Univ… 2024-07-30            
#>  7 6874561561f77469… HBM435.T… HBM279.WPZP.978 Stanford … 2024-07-19            
#>  8 6f700af74a252c99… HBM363.L… HBM279.WPZP.978 Stanford … 2024-07-19            
#>  9 f0905232556b1608… HBM396.V… HBM279.WPZP.978 Stanford … 2024-07-19            
#> 10 038e4fcefc00f7ec… HBM595.S… HBM279.WPZP.978 Stanford … 2024-07-19            
#> # ℹ 2,181 more rows
#> # ℹ abbreviated name: ¹​last_modified_timestamp
#> # ℹ 2 more variables: sample_category <chr>, organ <chr>
…
