Explore Human BioMolecular Atlas Program Data Portal • HuBMAPR
…
HuBMAP data portal page displays five categories of
entity data (datasets, samples, donors, publications, and collections)
chronologically (last modified date time). You can choose to explore
arbitrary size of data starting from random location. By default, you
can only page through less than 10000 data at one time using
from and size numeric parameters. To read next
or more pages, change from to other values. Using
corresponding functions to explore entity data.

Datasets

Retrieve the first 200 datasets using datasets().

datasets(size = 200, from = 0)
#> # A tibble: 200 × 9
#>    uuid                        hubmap_id dataset_type donor.hubmap_id group_name
#>    <chr>                       <chr>     <chr>        <chr>           <chr>     
#>  1 bbbf5a5b29986dd57910daab00… HBM664.N… Histology [… HBM279.WPZP.978 Stanford …
#>  2 db0d7736f53dcf9bc79af180d8… HBM762.L… Histology [… HBM279.WPZP.978 Stanford …
#>  3 7ae50cd47b3d2291adfb58c810… HBM769.Q… Histology [… HBM279.WPZP.978 Stanford …
#>  4 77e7f69bbda6a37658209f3544… HBM258.X… Histology [… HBM279.WPZP.978 Stanford …
#>  5 1a3cf1aacd2e8ff688d5420b83… HBM592.T… Histology [… HBM279.WPZP.978 Stanford …
#>  6 6c9bdbe57fc29b2f61620cf08e… HBM684.P… Histology [… HBM279.WPZP.978 Stanford …
#>  7 baf976734dd652208d13134bc5… HBM468.M… Histology    HBM279.WPZP.978 Stanford …
#>  8 57b475b8ad39fa2cf07ede0cf1… HBM579.L… Histology    HBM279.WPZP.978 Stanford …
#>  9 856aa4e05b68a78411a2e20f26… HBM433.H… Histology    HBM279.WPZP.978 Stanford …
#> 10 75fbf3b4452190bc5b3768c439… HBM727.S… Histology [… HBM765.TRHD.452 Stanford …
#> # ℹ 190 more rows
#> # ℹ 4 more variables: last_modified_timestamp <date>, status <chr>,
#> #   data_types <chr>, organ <chr>
…
