HuBMAP Datasets — datasets • HuBMAPR
…
    Details

    Additional details are provided on the HuBMAP consortium
webpage, https://software.docs.hubmapconsortium.org/apis

Additional details are provided on the HuBMAP consortium
webpage, https://software.docs.hubmapconsortium.org/apis

    Examples

datasets()
#> # A tibble: 2,889 × 13
#>    uuid              hubmap_id registered_by dataset_processing_c…¹ dataset_type
#>    <chr>             <chr>     <chr>         <chr>                  <chr>       
#>  1 3e4c568d9ce8df9d… HBM422.K… HuBMAP Proce… Raw                    MUSIC       
#>  2 db0d7736f53dcf9b… HBM762.L… HuBMAP Proce… HuBMAP Process         Histology […
#>  3 baf976734dd65220… HBM468.M… HuBMAP Proce… Raw                    Histology   
#>  4 bbbf5a5b29986dd5… HBM664.N… HuBMAP Proce… HuBMAP Process         Histology […
#>  5 57b475b8ad39fa2c… HBM579.L… HuBMAP Proce… Raw                    Histology   
#>  6 856aa4e05b68a784… HBM433.H… HuBMAP Proce… Raw                    Histology   
#>  7 a86f65547dbb2528… HBM989.N… HuBMAP Proce… Raw                    MUSIC       
#>  8 bc88a7cec9952a4c… HBM436.Z… HuBMAP Proce… Raw                    MUSIC       
#>  9 8a7d2e1f06f01754… HBM634.F… HuBMAP Proce… Raw                    MUSIC       
#> 10 80ec78509e49ec71… HBM644.W… HuBMAP Proce… Raw                    MUSIC       
#> # ℹ 2,879 more rows
#> # ℹ abbreviated name: ¹​dataset_processing_category
#> # ℹ 8 more variables: donor.hubmap_id <chr>, group_name <chr>,
#> #   last_modified_timestamp <chr>, analyte_class <chr>, sample_category <chr>,
#> #   status <chr>, data_types <chr>, organ <chr>
…
