HuBMAP Donors — donors • HuBMAPR
…
Additional details are provided on the HuBMAP consortium
webpage, https://software.docs.hubmapconsortium.org/apis

Additional details are provided on the HuBMAP consortium
webpage, https://software.docs.hubmapconsortium.org/apis

Additional details are provided on the HuBMAP consortium
webpage, https://software.docs.hubmapconsortium.org/apis

    Examples

donors()
#> # A tibble: 228 × 8
#>    uuid                 hubmap_id group_name Sex   Age   `Body Mass Index` Race 
#>    <chr>                <chr>     <chr>      <chr> <chr> <chr>             <chr>
#>  1 c09f875545a64694d70… HBM534.P… TTD - Uni… Fema… 90    NA                White
#>  2 0abacde2443881351ff… HBM358.K… TTD - Uni… Male  90    NA                White
#>  3 d7c90f1fe1ae702df84… HBM639.M… TTD - Uni… Fema… 59    NA                White
#>  4 b1acd1731563347de3a… HBM674.F… TTD - Uni… Fema… 60    NA                White
#>  5 24e6946400b65468a96… HBM379.B… TTD - Uni… Male  79    NA                White
#>  6 c9c39035edc9de812f6… HBM543.J… TTD - Uni… Male  71    NA                White
#>  7 f079501ef0915131c8b… HBM448.V… TTD - Uni… Fema… 82    NA                White
#>  8 a0bea4ae0ce4e03efd0… HBM666.X… TTD - Uni… Fema… 82    NA                White
#>  9 03b6236566cfd447214… HBM263.S… TTD - Uni… Fema… 75    NA                White
#> 10 5cc62ac9233e8c5d6c4… HBM993.R… TTD - Uni… Fema… 75    NA                White
#> # ℹ 218 more rows
#> # ℹ 1 more variable: last_modified_timestamp <chr>
…
