HuBMAP Samples — publications • HuBMAPR
…
uuid <- "3c7273660cdf9ab91a7901533b2cd9a5"
publication_data(uuid)
#> # A tibble: 1 × 7
#>   uuid     hubmap_id data_types dataset_type status last_modified_timest…¹ organ
#>   <chr>    <chr>     <chr>      <chr>        <chr>  <date>                 <chr>
#> 1 00d9d4b… HBM342.M… SNARE-RNA… RNAseq       Publi… 2022-05-11             Kidn…
#> # ℹ abbreviated name: ¹​last_modified_timestamp

uuid <- "3c7273660cdf9ab91a7901533b2cd9a5"
publication_authors(uuid)
#> # A tibble: 50 × 8
#>    affiliation      first_name is_contact last_name middle_name_or_initial name 
#>    <chr>            <chr>      <chr>      <chr>     <chr>                  <chr>
#>  1 Department of B… Blue       FALSE      Lake      "B."                   Blue…
#>  2 Department of C… Rajasree   FALSE      Menon     ""                     Raja…
#>  3 Department of P… Seth       FALSE      Winfree   ""                     Seth…
#>  4 Department of B… Qiwen      FALSE      Hu        ""                     Qiwe…
#>  5 Department of M… Ricardo    FALSE      Melo Fer… ""                     Rica…
#>  6 Department of B… Kian       FALSE      Kalhor    ""                     Kian…
#>  7 Department of M… Daria      FALSE      Barwinska ""                     Dari…
#>  8 Department of I… Edgar      FALSE      Otto      "A."                   Edga…
#>  9 Department of M… Michael    FALSE      Ferkowicz ""                     Mich…
#> 10 Department of B… Dinh       FALSE      Diep      ""                     Dinh…
#> # ℹ 40 more rows
#> # ℹ 2 more variables: orcid_id <chr>, version <chr>
…
