HuBMAP Samples — samples • HuBMAPR
…
    Details

    Additional details are provided on the HuBMAP consortium
webpage, https://software.docs.hubmapconsortium.org/apis

Additional details are provided on the HuBMAP consortium
webpage, https://software.docs.hubmapconsortium.org/apis

Additional details are provided on the HuBMAP consortium
webpage, https://software.docs.hubmapconsortium.org/apis

    Examples

samples()
#> # A tibble: 1,927 × 7
#>    uuid              hubmap_id donor.hubmap_id group_name last_modified_timest…¹
#>    <chr>             <chr>     <chr>           <chr>      <chr>                 
#>  1 509d2f22c9e9c33e… HBM944.X… HBM279.WPZP.978 Stanford … 2024-07-19            
#>  2 1367446a254479d8… HBM668.F… HBM279.WPZP.978 Stanford … 2024-07-19            
#>  3 6f700af74a252c99… HBM363.L… HBM279.WPZP.978 Stanford … 2024-07-19            
#>  4 6874561561f77469… HBM435.T… HBM279.WPZP.978 Stanford … 2024-07-19            
#>  5 f0905232556b1608… HBM396.V… HBM279.WPZP.978 Stanford … 2024-07-19            
#>  6 1cfe67afe97094ac… HBM355.M… HBM279.WPZP.978 Stanford … 2024-07-19            
#>  7 23820292ab47f319… HBM236.X… HBM279.WPZP.978 Stanford … 2024-07-19            
#>  8 038e4fcefc00f7ec… HBM595.S… HBM279.WPZP.978 Stanford … 2024-07-19            
#>  9 e3b74d607c3b20c9… HBM876.S… HBM477.DBJN.952 Universit… 2024-05-29            
#> 10 e4ffe5a1de1e63b3… HBM867.F… HBM568.HLJW.252 Universit… 2024-05-29            
#> # ℹ 1,917 more rows
#> # ℹ abbreviated name: ¹​last_modified_timestamp
#> # ℹ 2 more variables: sample_category <chr>, organ <chr>
…
