Explore Human BioMolecular Atlas Program Data Portal • HuBMAPR
…
Data Discovery

HuBMAP data portal page displays five categories of
entity data, which are Dataset, Sample, Donor, Publication, and
Collection, chronologically (last modified date time). You can
choose to explore arbitrary size of data starting from random location.
By default, you can only page through less than 10000 data at one time
using from and size numeric parameters. To
read next or more pages, change from to other values. Using
corresponding functions to explore entity data.

# Retrieve the first 200 datasets
datasets_sub <- datasets(size = 200, from = 0)
datasets_sub
#> # A tibble: 200 × 9
#>    uuid                        hubmap_id dataset_type donor.hubmap_id group_name
#>    <chr>                       <chr>     <chr>        <chr>           <chr>     
#>  1 bbbf5a5b29986dd57910daab00… HBM664.N… Histology [… HBM279.WPZP.978 Stanford …
#>  2 db0d7736f53dcf9bc79af180d8… HBM762.L… Histology [… HBM279.WPZP.978 Stanford …
#>  3 7ae50cd47b3d2291adfb58c810… HBM769.Q… Histology [… HBM279.WPZP.978 Stanford …
#>  4 77e7f69bbda6a37658209f3544… HBM258.X… Histology [… HBM279.WPZP.978 Stanford …
#>  5 1a3cf1aacd2e8ff688d5420b83… HBM592.T… Histology [… HBM279.WPZP.978 Stanford …
#>  6 6c9bdbe57fc29b2f61620cf08e… HBM684.P… Histology [… HBM279.WPZP.978 Stanford …
#>  7 baf976734dd652208d13134bc5… HBM468.M… Histology    HBM279.WPZP.978 Stanford …
#>  8 57b475b8ad39fa2cf07ede0cf1… HBM579.L… Histology    HBM279.WPZP.978 Stanford …
#>  9 856aa4e05b68a78411a2e20f26… HBM433.H… Histology    HBM279.WPZP.978 Stanford …
#> 10 75fbf3b4452190bc5b3768c439… HBM727.S… Histology [… HBM765.TRHD.452 Stanford …
#> # ℹ 190 more rows
#> # ℹ 4 more variables: last_modified_timestamp <date>, status <chr>,
#> #   data_types <chr>, organ <chr>

# Retrieve 200 samples from the 30th sample arranged chronologically
samples_sub <- samples(size = 200, from = 10)
samples_sub
#> # A tibble: 200 × 7
#>    uuid              hubmap_id donor.hubmap_id group_name last_modified_timest…¹
#>    <chr>             <chr>     <chr>           <chr>      <date>                
#>  1 744f20be06ec72b7… HBM796.X… HBM375.PJSC.682 Universit… 2024-05-29            
#>  2 681f7f1d0a87427c… HBM788.K… HBM984.MHHN.738 Universit… 2024-05-29            
#>  3 a6acb120173be820… HBM786.T… HBM662.VVHK.499 Universit… 2024-05-29            
#>  4 0ec930e0f4a8fcf1… HBM752.D… HBM994.SGLP.263 Universit… 2024-05-29            
#>  5 acb712bf26d8fe7d… HBM748.G… HBM735.QDFT.264 Universit… 2024-05-29            
#>  6 c18dbe465fe2dfdd… HBM735.Q… HBM894.PKMC.242 Universit… 2024-05-29            
#>  7 5abbecf8d13b9df7… HBM562.L… HBM256.BRQS.425 Universit… 2024-05-29            
#>  8 8d7ce3aab7013e41… HBM556.C… HBM867.BLQJ.787 Universit… 2024-05-29            
#>  9 c4200fa2bd88eca8… HBM486.Q… HBM984.MHHN.738 Universit… 2024-05-29            
#> 10 c15e6342d6905d6d… HBM548.T… HBM579.CTRK.363 Universit… 2024-05-29            
#> # ℹ 190 more rows
#> # ℹ abbreviated name: ¹​last_modified_timestamp
#> # ℹ 2 more variables: sample_category <chr>, organ <chr>

# Retrieve full
datasets <- datasets()
samples <- samples()

donors <- donors()
donors
#> # A tibble: 228 × 8
#>    uuid      hubmap_id group_name last_modified_timest…¹ Sex     Age Race    BMI
#>    <chr>     <chr>     <chr>      <date>                 <chr> <dbl> <chr> <dbl>
#>  1 c09f8755… HBM534.P… TTD - Uni… 2024-04-03             Fema…    90 White    NA
#>  2 0abacde2… HBM358.K… TTD - Uni… 2024-04-03             Male     90 White    NA
#>  3 d7c90f1f… HBM639.M… TTD - Uni… 2024-04-03             Fema…    59 White    NA
#>  4 b1acd173… HBM674.F… TTD - Uni… 2024-04-03             Fema…    60 White    NA
#>  5 24e69464… HBM379.B… TTD - Uni… 2024-04-03             Male     79 White    NA
#>  6 c9c39035… HBM543.J… TTD - Uni… 2024-04-03             Male     71 White    NA
#>  7 f079501e… HBM448.V… TTD - Uni… 2024-04-03             Fema…    82 White    NA
#>  8 03b62365… HBM263.S… TTD - Uni… 2024-04-03             Fema…    75 White    NA
#>  9 a0bea4ae… HBM666.X… TTD - Uni… 2024-04-03             Fema…    82 White    NA
#> 10 5cc62ac9… HBM993.R… TTD - Uni… 2024-04-03             Fema…    75 White    NA
#> # ℹ 218 more rows
#> # ℹ abbreviated name: ¹​last_modified_timestamp
…
Use organ() to read through the available organs
included in HuBMAP. It can be helpful to filter retrieved
data based on organ information.

organs <- organ()
organs
#> # A tibble: 37 × 2
#>    abbreviation name                 
#>    <chr>        <chr>                
#>  1 AO           Aorta                
#>  2 BD           Blood                
#>  3 BL           Bladder              
#>  4 BM           Bone Marrow          
#>  5 BR           Brain                
#>  6 HT           Heart                
#>  7 LB           Bronchus (Left)      
#>  8 LE           Eye (Left)           
#>  9 LF           Fallopian Tube (Left)
#> 10 LI           Large Intestine      
#> # ℹ 27 more rows
…
# Datasets
donor_sub_dataset <- donor_sub |>
    left_join(datasets |>
                select(-c(group_name, last_modified_timestamp)) |>
                rename("dataset_uuid" = "uuid",
                        "dataset_hubmap_id" = "hubmap_id"), 
                by = c("hubmap_id" = "donor.hubmap_id"))

donor_sub_dataset
#> # A tibble: 76 × 14
#>    uuid      hubmap_id group_name last_modified_timest…¹ Sex     Age Race    BMI
#>    <chr>     <chr>     <chr>      <date>                 <chr> <dbl> <chr> <dbl>
#>  1 f8d963ca… HBM289.B… Universit… 2020-01-08             Fema…    57 White  19.6
#>  2 f8d963ca… HBM289.B… Universit… 2020-01-08             Fema…    57 White  19.6
#>  3 f8d963ca… HBM289.B… Universit… 2020-01-08             Fema…    57 White  19.6
#>  4 f8d963ca… HBM289.B… Universit… 2020-01-08             Fema…    57 White  19.6
#>  5 f8d963ca… HBM289.B… Universit… 2020-01-08             Fema…    57 White  19.6
#>  6 f8d963ca… HBM289.B… Universit… 2020-01-08             Fema…    57 White  19.6
#>  7 f8d963ca… HBM289.B… Universit… 2020-01-08             Fema…    57 White  19.6
#>  8 f8d963ca… HBM289.B… Universit… 2020-01-08             Fema…    57 White  19.6
#>  9 f8d963ca… HBM289.B… Universit… 2020-01-08             Fema…    57 White  19.6
#> 10 f8d963ca… HBM289.B… Universit… 2020-01-08             Fema…    57 White  19.6
#> # ℹ 66 more rows
#> # ℹ abbreviated name: ¹​last_modified_timestamp
#> # ℹ 6 more variables: dataset_uuid <chr>, dataset_hubmap_id <chr>,
#> #   dataset_type <chr>, status <chr>, data_types <chr>, organ <chr>
…
length(sample_hubmap_id_dataset_1$uuid) == 
        length(sample_hubmap_id_dataset_2$uuid)
#> [1] TRUE

Each collection has related datasets, and use
collection_datasets() to retrieve.

collection_uuid <- collections |>
    filter(last_modified_timestamp >= "2023-01-01") |>
    head(1) |>
    pull(uuid)

collection_datasets(collection_uuid)
#> # A tibble: 211 × 8
#>    uuid                 hubmap_id data_types dataset_type last_modified_timest…¹
#>    <chr>                <chr>     <list>     <chr>        <date>                
#>  1 59c8093930a89bc9f91… HBM296.N… <chr [1]>  MIBI         2023-03-09            
#>  2 09dcc99a01f38aae6a1… HBM374.N… <chr [1]>  MIBI         2023-03-09            
#>  3 c0ede749605a0062419… HBM255.F… <chr [1]>  MIBI         2023-03-09            
#>  4 18a68d8433ac8bf3fcc… HBM297.D… <chr [1]>  MIBI         2023-03-09            
#>  5 4e6a2c1bd0393f5affb… HBM495.D… <chr [1]>  MIBI         2023-03-09            
#>  6 f5619b5785725dfc5be… HBM452.K… <chr [1]>  MIBI         2023-03-09            
#>  7 2b56f0f0ee934e396d5… HBM887.D… <chr [1]>  MIBI         2023-03-09            
#>  8 54eec389e909636837c… HBM439.H… <chr [1]>  MIBI         2023-03-09            
#>  9 b77be6257b71ae7386f… HBM225.P… <chr [1]>  MIBI         2023-03-09            
#> 10 36a80d485f1fb6f56ef… HBM367.Q… <chr [1]>  MIBI         2023-03-09            
#> # ℹ 201 more rows
#> # ℹ abbreviated name: ¹​last_modified_timestamp
#> # ℹ 3 more variables: created_by_user_displayname <chr>, status <chr>,
#> #   organ <chr>
…
